2015-04-17 14:51:49,840 [8] ERROR NHibernate.LazyInitializationException [(null)] - Initializing[Lalubema.Orion.Domain.Corona.Usuario#16235]-failed to lazily initialize a collection of role: Lalubema.Orion.Domain.Corona.Usuario.Acessos, no session or session was closed
NHibernate.LazyInitializationException: Initializing[Lalubema.Orion.Domain.Corona.Usuario#16235]-failed to lazily initialize a collection of role: Lalubema.Orion.Domain.Corona.Usuario.Acessos, no session or session was closed
2015-04-17 14:51:50,034 [8] ERROR NHibernate.LazyInitializationException [(null)] - Initializing[Lalubema.Orion.Domain.Corona.Usuario#16235]-failed to lazily initialize a collection of role: Lalubema.Orion.Domain.Corona.Usuario.Autorizacoes, no session or session was closed
NHibernate.LazyInitializationException: Initializing[Lalubema.Orion.Domain.Corona.Usuario#16235]-failed to lazily initialize a collection of role: Lalubema.Orion.Domain.Corona.Usuario.Autorizacoes, no session or session was closed
2015-04-17 14:51:50,175 [8] ERROR NHibernate.LazyInitializationException [(null)] - Initializing[Lalubema.Orion.Domain.Corona.Usuario#16235]-failed to lazily initialize a collection of role: Lalubema.Orion.Domain.Corona.Usuario.ChegadasSeguraMorador, no session or session was closed
NHibernate.LazyInitializationException: Initializing[Lalubema.Orion.Domain.Corona.Usuario#16235]-failed to lazily initialize a collection of role: Lalubema.Orion.Domain.Corona.Usuario.ChegadasSeguraMorador, no session or session was closed
2015-04-17 14:51:50,320 [8] ERROR NHibernate.LazyInitializationException [(null)] - Initializing[Lalubema.Orion.Domain.Corona.Usuario#16235]-failed to lazily initialize a collection of role: Lalubema.Orion.Domain.Corona.Usuario.ChegadasSeguraPorteiro, no session or session was closed
NHibernate.LazyInitializationException: Initializing[Lalubema.Orion.Domain.Corona.Usuario#16235]-failed to lazily initialize a collection of role: Lalubema.Orion.Domain.Corona.Usuario.ChegadasSeguraPorteiro, no session or session was closed
2015-04-17 14:51:50,564 [8] ERROR NHibernate.LazyInitializationException [(null)] - Initializing[Lalubema.Orion.Domain.Corona.Usuario#16235]-failed to lazily initialize a collection of role: Lalubema.Orion.Domain.Corona.Usuario.Classificados, no session or session was closed
NHibernate.LazyInitializationException: Initializing[Lalubema.Orion.Domain.Corona.Usuario#16235]-failed to lazily initialize a collection of role: Lalubema.Orion.Domain.Corona.Usuario.Classificados, no session or session was closed
2015-04-17 14:51:50,726 [8] ERROR NHibernate.LazyInitializationException [(null)] - Initializing[Lalubema.Orion.Domain.Corona.Usuario#16235]-failed to lazily initialize a collection of role: Lalubema.Orion.Domain.Corona.Usuario.Convenios, no session or session was closed
NHibernate.LazyInitializationException: Initializing[Lalubema.Orion.Domain.Corona.Usuario#16235]-failed to lazily initialize a collection of role: Lalubema.Orion.Domain.Corona.Usuario.Convenios, no session or session was closed
2015-04-17 14:51:50,899 [8] ERROR NHibernate.LazyInitializationException [(null)] - Initializing[Lalubema.Orion.Domain.Corona.Usuario#16235]-failed to lazily initialize a collection of role: Lalubema.Orion.Domain.Corona.Usuario.Devices, no session or session was closed
NHibernate.LazyInitializationException: Initializing[Lalubema.Orion.Domain.Corona.Usuario#16235]-failed to lazily initialize a collection of role: Lalubema.Orion.Domain.Corona.Usuario.Devices, no session or session was closed
2015-04-17 14:51:51,079 [8] ERROR NHibernate.LazyInitializationException [(null)] - Initializing[Lalubema.Orion.Domain.Corona.Usuario#16235]-failed to lazily initialize a collection of role: Lalubema.Orion.Domain.Corona.Usuario.MensagensEnviadas, no session or session was closed
NHibernate.LazyInitializationException: Initializing[Lalubema.Orion.Domain.Corona.Usuario#16235]-failed to lazily initialize a collection of role: Lalubema.Orion.Domain.Corona.Usuario.MensagensEnviadas, no session or session was closed
2015-04-17 14:51:51,216 [8] ERROR NHibernate.LazyInitializationException [(null)] - Initializing[Lalubema.Orion.Domain.Corona.Usuario#16235]-failed to lazily initialize a collection of role: Lalubema.Orion.Domain.Corona.Usuario.MensagensRecebidas, no session or session was closed
NHibernate.LazyInitializationException: Initializing[Lalubema.Orion.Domain.Corona.Usuario#16235]-failed to lazily initialize a collection of role: Lalubema.Orion.Domain.Corona.Usuario.MensagensRecebidas, no session or session was closed
2015-04-17 14:51:51,358 [8] ERROR NHibernate.LazyInitializationException [(null)] - Initializing[Lalubema.Orion.Domain.Corona.Usuario#16235]-failed to lazily initialize a collection of role: Lalubema.Orion.Domain.Corona.Usuario.PessoaCondominios, no session or session was closed
NHibernate.LazyInitializationException: Initializing[Lalubema.Orion.Domain.Corona.Usuario#16235]-failed to lazily initialize a collection of role: Lalubema.Orion.Domain.Corona.Usuario.PessoaCondominios, no session or session was closed
2015-04-17 14:51:51,501 [8] ERROR NHibernate.LazyInitializationException [(null)] - Initializing[Lalubema.Orion.Domain.Corona.Usuario#16235]-failed to lazily initialize a collection of role: Lalubema.Orion.Domain.Corona.Usuario.ReservaLocalBems, no session or session was closed
NHibernate.LazyInitializationException: Initializing[Lalubema.Orion.Domain.Corona.Usuario#16235]-failed to lazily initialize a collection of role: Lalubema.Orion.Domain.Corona.Usuario.ReservaLocalBems, no session or session was closed
2015-04-17 14:51:51,642 [8] ERROR NHibernate.LazyInitializationException [(null)] - Initializing[Lalubema.Orion.Domain.Corona.Usuario#16235]-failed to lazily initialize a collection of role: Lalubema.Orion.Domain.Corona.Usuario.ReservasAreaComum, no session or session was closed
NHibernate.LazyInitializationException: Initializing[Lalubema.Orion.Domain.Corona.Usuario#16235]-failed to lazily initialize a collection of role: Lalubema.Orion.Domain.Corona.Usuario.ReservasAreaComum, no session or session was closed
2015-04-17 14:51:51,784 [8] ERROR NHibernate.LazyInitializationException [(null)] - Initializing[Lalubema.Orion.Domain.Corona.Usuario#16235]-failed to lazily initialize a collection of role: Lalubema.Orion.Domain.Corona.Usuario.UnidadesHabitacional, no session or session was closed
NHibernate.LazyInitializationException: Initializing[Lalubema.Orion.Domain.Corona.Usuario#16235]-failed to lazily initialize a collection of role: Lalubema.Orion.Domain.Corona.Usuario.UnidadesHabitacional, no session or session was closed
2015-04-17 14:51:51,970 [8] ERROR NHibernate.LazyInitializationException [(null)] - Initializing[Lalubema.Orion.Domain.Corona.Usuario#16235]-failed to lazily initialize a collection of role: Lalubema.Orion.Domain.Corona.Usuario.Acessos, no session or session was closed
NHibernate.LazyInitializationException: Initializing[Lalubema.Orion.Domain.Corona.Usuario#16235]-failed to lazily initialize a collection of role: Lalubema.Orion.Domain.Corona.Usuario.Acessos, no session or session was closed
2015-04-17 18:24:18,242 [6] ERROR NHibernate.LazyInitializationException [(null)] - Initializing[Lalubema.Orion.Domain.Corona.Usuario#16235]-failed to lazily initialize a collection of role: Lalubema.Orion.Domain.Corona.Usuario.PessoaCondominios, no session or session was closed
NHibernate.LazyInitializationException: Initializing[Lalubema.Orion.Domain.Corona.Usuario#16235]-failed to lazily initialize a collection of role: Lalubema.Orion.Domain.Corona.Usuario.PessoaCondominios, no session or session was closed
